{
  "formatVersion": 1,
  "database": {
    "version": 3,
    "identityHash": "e394b3db9c1a0d9899df085ec48a25f5",
    "entities": [
      {
        "tableName": "NasaListsItem",
        "createSql": "CREATE TABLE IF NOT EXISTS `${TABLE_NAME}` (`title` TEXT NOT NULL, `date` TEXT NOT NULL, `explanation` TEXT NOT NULL, `hdurl` TEXT NOT NULL, `media_type` TEXT NOT NULL, `service_version` TEXT NOT NULL, `url` TEXT NOT NULL, PRIMARY KEY(`title`))",
        "fields": [
          {
            "fieldPath": "title",
            "columnName": "title",
            "affinity": "TEXT",
            "notNull": true
          },
          {
            "fieldPath": "date",
            "columnName": "date",
            "affinity": "TEXT",
            "notNull": true
          },
          {
            "fieldPath": "explanation",
            "columnName": "explanation",
            "affinity": "TEXT",
            "notNull": true
          },
          {
            "fieldPath": "hdurl",
            "columnName": "hdurl",
            "affinity": "TEXT",
            "notNull": true
          },
          {
            "fieldPath": "media_type",
            "columnName": "media_type",
            "affinity": "TEXT",
            "notNull": true
          },
          {
            "fieldPath": "service_version",
            "columnName": "service_version",
            "affinity": "TEXT",
            "notNull": true
          },
          {
            "fieldPath": "url",
            "columnName": "url",
            "affinity": "TEXT",
            "notNull": true
          }
        ],
        "primaryKey": {
          "columnNames": [
            "title"
          ],
          "autoGenerate": false
        },
        "indices": [],
        "foreignKeys": []
      }
    ],
    "views": [],
    "setupQueries": [
      "CREATE TABLE IF NOT EXISTS room_master_table (id INTEGER PRIMARY KEY,identity_hash TEXT)",
      "INSERT OR REPLACE INTO room_master_table (id,identity_hash) VALUES(42, 'e394b3db9c1a0d9899df085ec48a25f5')"
    ]
  }
}