{
  "formatVersion": 1,
  "database": {
    "version": 7,
    "identityHash": "0184be99bb237962e24a4a4f33c1edfb",
    "entities": [
      {
        "tableName": "NasaListsItem",
        "createSql": "CREATE TABLE IF NOT EXISTS `${TABLE_NAME}` (`title` TEXT NOT NULL, `copyright` TEXT, `date` TEXT, `explanation` TEXT NOT NULL, `hdurl` TEXT, `media_type` TEXT, `service_version` TEXT, `url` TEXT, PRIMARY KEY(`title`))",
        "fields": [
          {
            "fieldPath": "title",
            "columnName": "title",
            "affinity": "TEXT",
            "notNull": true
          },
          {
            "fieldPath": "copyright",
            "columnName": "copyright",
            "affinity": "TEXT",
            "notNull": false
          },
          {
            "fieldPath": "date",
            "columnName": "date",
            "affinity": "TEXT",
            "notNull": false
          },
          {
            "fieldPath": "explanation",
            "columnName": "explanation",
            "affinity": "TEXT",
            "notNull": true
          },
          {
            "fieldPath": "hdurl",
            "columnName": "hdurl",
            "affinity": "TEXT",
            "notNull": false
          },
          {
            "fieldPath": "media_type",
            "columnName": "media_type",
            "affinity": "TEXT",
            "notNull": false
          },
          {
            "fieldPath": "service_version",
            "columnName": "service_version",
            "affinity": "TEXT",
            "notNull": false
          },
          {
            "fieldPath": "url",
            "columnName": "url",
            "affinity": "TEXT",
            "notNull": false
          }
        ],
        "primaryKey": {
          "columnNames": [
            "title"
          ],
          "autoGenerate": false
        },
        "indices": [],
        "foreignKeys": []
      }
    ],
    "views": [],
    "setupQueries": [
      "CREATE TABLE IF NOT EXISTS room_master_table (id INTEGER PRIMARY KEY,identity_hash TEXT)",
      "INSERT OR REPLACE INTO room_master_table (id,identity_hash) VALUES(42, '0184be99bb237962e24a4a4f33c1edfb')"
    ]
  }
}